…
    ## Rows: 822 Columns: 9
    ## ── Column specification ────────────────────────────────────────────────────────
    ## Delimiter: ","
    ## dbl  (8): prez_gop, gov_gop, sen_gop, rep_gop, prez_dem, gov_dem, sen_dem, r...
    ## date (1): mon
    ## 
    ## ℹ Use `spec()` to retrieve the full column specification for this data.
    ## ℹ Specify the column types or set `show_col_types = FALSE` to quiet this message.
    ## Joining with `by = join_by(month_num)`

``` r
pols_df
```

    ## # A tibble: 822 × 11
    ##     year month     month_num gov_gop sen_gop rep_gop gov_dem sen_dem rep_dem
    ##    <int> <chr>         <int>   <dbl>   <dbl>   <dbl>   <dbl>   <dbl>   <dbl>
    ##  1  1947 January           1      23      51     253      23      45     198
    ##  2  1947 February          2      23      51     253      23      45     198
    ##  3  1947 March             3      23      51     253      23      45     198
    ##  4  1947 April             4      23      51     253      23      45     198
    ##  5  1947 May               5      23      51     253      23      45     198
    ##  6  1947 June              6      23      51     253      23      45     198
    ##  7  1947 July              7      23      51     253      23      45     198
    ##  8  1947 August            8      23      51     253      23      45     198
    ##  9  1947 September         9      23      51     253      23      45     198
    ## 10  1947 October          10      23      51     253      23      45     198
    ## # ℹ 812 more rows
    ## # ℹ 2 more variables: president <chr>, month_abb <chr>
